class/ese545/project/cellspu/top.vcd
$date
	Wed May  2 12:55:50 2012
$end
$version
	Icarus Verilog
$end
$timescale
	1s
$end
$scope module top $end
$var wire 32 ! adr [31:0] $end
$var wire 32 " instr0 [31:0] $end
$var wire 32 # instr1 [31:0] $end
$var wire 128 $ memdata [127:0] $end
$var wire 1 % memread $end
$var wire 1 & memwrite $end
$var wire 128 ' writedata [127:0] $end
$var reg 1 ( clk $end
$var reg 1 ) reset $end
$scope module spulite $end
$var wire 32 * adr [31:0] $end
$var wire 3 + alucont [2:0] $end
$var wire 2 , aluop [1:0] $end
$var wire 1 - alusrca $end
$var wire 2 . alusrcb [1:0] $end
$var wire 1 / clk $end
$var wire 32 0 instr0 [31:0] $end
$var wire 32 1 instr1 [31:0] $end
$var wire 32 2 instrdata0 [31:0] $end
$var wire 32 3 instrdata1 [31:0] $end
$var wire 1 4 iord $end
$var wire 4 5 irwrite [3:0] $end
$var wire 128 6 memdata [127:0] $end
$var wire 1 % memread $end
$var wire 1 7 memtoreg $end
$var wire 1 & memwrite $end
$var wire 1 8 pcen $end
$var wire 2 9 pcsource [1:0] $end
$var wire 1 : regdst $end
$var wire 1 ; regwrite $end
$var wire 1 < reset $end
$var wire 128 = writedata [127:0] $end
$var wire 1 > zero $end
$scope module ac $end
$var wire 2 ? aluop [1:0] $end
$var wire 6 @ funct [5:0] $end
$var reg 3 A alucont [2:0] $end
$upscope $end
$scope module dp $end
$var wire 32 B a [31:0] $end
$var wire 32 C adr [31:0] $end
$var wire 3 D alucont [2:0] $end
$var wire 32 E aluout [31:0] $end
$var wire 32 F aluresult [31:0] $end
$var wire 1 - alusrca $end
$var wire 2 G alusrcb [1:0] $end
$var wire 1 / clk $end
$var wire 3 H cont0 [2:0] $end
$var wire 3 I cont1 [2:0] $end
$var wire 128 J ep_out [127:0] $end
$var wire 128 K ep_result [127:0] $end
$var wire 3 L even_mode [2:0] $end
$var wire 1 M even_mux_sel $end
$var wire 1 N even_or_odd_0 $end
$var wire 1 O even_or_odd_1 $end
$var wire 128 P even_rd0 [127:0] $end
$var wire 128 Q even_rd1 [127:0] $end
$var wire 10 R i10_0 [9:0] $end
$var wire 10 S i10_1 [9:0] $end
$var wire 1 T i10_en_0 $end
$var wire 1 U i10_en_1 $end
$var wire 16 V i16_0 [15:0] $end
$var wire 16 W i16_1 [15:0] $end
$var wire 1 X i16_en_0 $end
$var wire 1 Y i16_en_1 $end
$var wire 1 Z i_en_0 $end
$var wire 1 [ i_en_1 $end
$var wire 32 \ instr0 [31:0] $end
$var wire 32 ] instr1 [31:0] $end
$var wire 1 4 iord $end
$var wire 4 ^ irwrite [3:0] $end
$var wire 128 _ md [127:0] $end
$var wire 128 ` memdata [127:0] $end
$var wire 32 a memdata0 [31:0] $end
$var wire 32 b memdata1 [31:0] $end
$var wire 1 7 memtoreg $end
$var wire 32 c nextpc [31:0] $end
$var wire 3 d odd_mode [2:0] $end
$var wire 1 e odd_mux_sel $end
$var wire 128 f odd_rd0 [127:0] $end
$var wire 128 g odd_rd1 [127:0] $end
$var wire 128 h op_out [127:0] $end
$var wire 128 i op_result [127:0] $end
$var wire 32 j pc [31:0] $end
$var wire 1 8 pcen $end
$var wire 2 k pcsource [1:0] $end
$var wire 32 l rd1 [31:0] $end
$var wire 7 m reg_ra_0 [6:0] $end
$var wire 7 n reg_ra_1 [6:0] $end
$var wire 7 o reg_rb_0 [6:0] $end
$var wire 7 p reg_rb_1 [6:0] $end
$var wire 128 q reg_rd00 [127:0] $end
$var wire 128 r reg_rd01 [127:0] $end
$var wire 128 s reg_rd10 [127:0] $end
$var wire 128 t reg_rd11 [127:0] $end
$var wire 7 u reg_rt_0 [6:0] $end
$var wire 7 v reg_rt_1 [6:0] $end
$var wire 1 : regdst $end
$var wire 1 ; regwrite $end
$var wire 1 < reset $end
$var wire 32 w src1 [31:0] $end
$var wire 1 x struc_hazard $end
$var wire 7 y wa [6:0] $end
$var wire 128 z writedata [127:0] $end
$var wire 1 > zero $end
$scope module ir0 $end
$var wire 32 { d0 [31:0] $end
$var wire 32 | d1 [31:0] $end
$var wire 1 } s $end
$var wire 32 ~ y [31:0] $end
$upscope $end
$scope module ir1 $end
$var wire 32 !" d0 [31:0] $end
$var wire 32 "" d1 [31:0] $end
$var wire 1 #" s $end
$var wire 32 $" y [31:0] $end
$upscope $end
$scope module id $end
$var wire 1 / clk $end
$var wire 1 %" en $end
$var wire 32 &" instr0 [31:0] $end
$var wire 32 '" instr1 [31:0] $end
$var reg 1 (" even_or_odd_0 $end
$var reg 1 )" even_or_odd_1 $end
$var reg 10 *" i10_0 [9:0] $end
$var reg 10 +" i10_1 [9:0] $end
$var reg 1 ," i10_en_0 $end
$var reg 1 -" i10_en_1 $end
$var reg 16 ." i16_0 [15:0] $end
$var reg 16 /" i16_1 [15:0] $end
$var reg 1 0" i16_en_0 $end
$var reg 1 1" i16_en_1 $end
$var reg 1 2" i_en_0 $end
$var reg 1 3" i_en_1 $end
$var reg 11 4" newop0 [10:0] $end
$var reg 11 5" newop1 [10:0] $end
$var reg 7 6" ra_0 [6:0] $end
$var reg 7 7" ra_1 [6:0] $end
$var reg 7 8" rb_0 [6:0] $end
$var reg 7 9" rb_1 [6:0] $end
$var reg 7 :" rt_0 [6:0] $end
$var reg 7 ;" rt_1 [6:0] $end
$var reg 1 <" struc_hazard $end
$upscope $end
$scope module pcalu $end
$var wire 1 / clk $end
$var wire 32 =" d [31:0] $end
$var wire 1 >" en $end
$var wire 32 ?" nextpc [31:0] $end
$var wire 1 < reset $end
$var wire 1 x str_haz $end
$var reg 32 @" q [31:0] $end
$upscope $end
$scope module pcreg $end
$var wire 1 / clk $end
$var wire 32 A" d [31:0] $end
$var wire 1 B" en $end
$var wire 1 < reset $end
$var reg 32 C" q [31:0] $end
$upscope $end
$scope module mdr $end
$var wire 1 / clk $end
$var wire 128 D" d [127:0] $end
$var reg 128 E" q [127:0] $end
$upscope $end
$scope module epres $end
$var wire 1 / clk $end
$var wire 128 F" d [127:0] $end
$var reg 128 G" q [127:0] $end
$upscope $end
$scope module opres $end
$var wire 1 / clk $end
$var wire 128 H" d [127:0] $end
$var reg 128 I" q [127:0] $end
$upscope $end
$scope module areg $end
$var wire 1 / clk $end
$var wire 32 J" d [31:0] $end
$var reg 32 K" q [31:0] $end
$upscope $end
$scope module res $end
$var wire 1 / clk $end
$var wire 32 L" d [31:0] $end
$var reg 32 M" q [31:0] $end
$upscope $end
$scope module adrmux $end
$var wire 32 N" d0 [31:0] $end
$var wire 32 O" d1 [31:0] $end
$var wire 1 P" s $end
$var wire 32 Q" y [31:0] $end
$upscope $end
$scope module src1mux $end
$var wire 32 R" d0 [31:0] $end
$var wire 32 S" d1 [31:0] $end
$var wire 1 - s $end
$var wire 32 T" y [31:0] $end
$upscope $end
$scope module even_ra_mux $end
$var wire 128 U" d0 [127:0] $end
$var wire 128 V" d1 [127:0] $end
$var wire 1 M s $end
$var wire 128 W" y [127:0] $end
$upscope $end
$scope module even_rb_mux $end
$var wire 128 X" d0 [127:0] $end
$var wire 128 Y" d1 [127:0] $end
$var wire 1 M s $end
$var wire 128 Z" y [127:0] $end
$upscope $end
$scope module even_cont_mux $end
$var wire 3 [" d0 [2:0] $end
$var wire 3 \" d1 [2:0] $end
$var wire 1 M s $end
$var wire 3 ]" y [2:0] $end
$upscope $end
$scope module odd_ra_mux $end
$var wire 128 ^" d0 [127:0] $end
$var wire 128 _" d1 [127:0] $end
$var wire 1 e s $end
$var wire 128 `" y [127:0] $end
$upscope $end
$scope module odd_rb_mux $end
$var wire 128 a" d0 [127:0] $end
$var wire 128 b" d1 [127:0] $end
$var wire 1 e s $end
$var wire 128 c" y [127:0] $end
$upscope $end
$scope module odd_cont_mux $end
$var wire 3 d" d0 [2:0] $end
$var wire 3 e" d1 [2:0] $end
$var wire 1 e s $end
$var wire 3 f" y [2:0] $end
$upscope $end
$scope module rf $end
$var wire 1 / clk $end
$var wire 1 M even_mux_sel $end
$var wire 1 N even_or_odd_0 $end
$var wire 1 O even_or_odd_1 $end
$var wire 10 g" i10_0 [9:0] $end
$var wire 10 h" i10_1 [9:0] $end
$var wire 1 T i10_en_0 $end
$var wire 1 U i10_en_1 $end
$var wire 16 i" i16_0 [15:0] $end
$var wire 16 j" i16_1 [15:0] $end
$var wire 1 X i16_en_0 $end
$var wire 1 Y i16_en_1 $end
$var wire 1 Z i_en_0 $end
$var wire 1 [ i_en_1 $end
$var wire 128 k" imm0 [127:0] $end
$var wire 128 l" imm1 [127:0] $end
$var wire 1 e odd_mux_sel $end
$var wire 7 m" ra_0 [6:0] $end
$var wire 7 n" ra_1 [6:0] $end
$var wire 7 o" rb_0 [6:0] $end
$var wire 7 p" rb_1 [6:0] $end
$var wire 128 q" rd00 [127:0] $end
$var wire 128 r" rd01 [127:0] $end
$var wire 128 s" rd10 [127:0] $end
$var wire 128 t" rd11 [127:0] $end
$var wire 1 ; regwrite $end
$var wire 7 u" rt_0 [6:0] $end
$var wire 7 v" rt_1 [6:0] $end
$var wire 7 w" wa [6:0] $end
$var wire 128 x" wd_even [127:0] $end
$var wire 128 y" wd_odd [127:0] $end
$var reg 3 z" cont0 [2:0] $end
$var reg 3 {" cont1 [2:0] $end
$var reg 7 |" pre_rt_even [6:0] $end
$var reg 7 }" pre_rt_odd [6:0] $end
$upscope $end
$scope module evenpipe $end
$var wire 128 ~" a [127:0] $end
$var wire 3 !# alucont [2:0] $end
$var wire 128 "# b [127:0] $end
$var wire 128 ## b2 [127:0] $end
$var wire 128 $# slt [127:0] $end
$var wire 128 %# sum [127:0] $end
$var reg 128 &# result [127:0] $end
$upscope $end
$scope module oddpipe $end
$var wire 128 '# a [127:0] $end
$var wire 3 (# alucont [2:0] $end
$var wire 128 )# b [127:0] $end
$var reg 128 *# result [127:0] $end
$upscope $end
$scope module zd $end
$var wire 32 +# a [31:0] $end
$var wire 1 > y $end
$upscope $end
$upscope $end
$upscope $end
$scope module exmem $end
$var wire 32 ,# adr [31:0] $end
$var wire 1 / clk $end
$var wire 1 -# fetchinstr $end
$var wire 1 .# memread $end
$var wire 1 /# memwrite $end
$var wire 128 0# writedata [127:0] $end
$var reg 32 1# instr0 [31:0] $end
$var reg 32 2# instr1 [31:0] $end
$var reg 128 3# memdata [127:0] $end
$upscope $end
$upscope $end
$enddefinitions $end
#0
$dumpvars
bx 3#
bx 2#
bx 1#
bz 0#
0/#
0.#
1-#
b0 ,#
bz +#
bx *#
bx )#
b10 (#
bx '#
bx &#
bx %#
b0x $#
bx ##
bx "#
b10 !#
bx ~"
bx }"
bx |"
b10 {"
b10 z"
bx y"
bx x"
bz w"
bx v"
bx u"
bx t"
bx s"
bx r"
bx q"
bx p"
bx o"
bx n"
bx m"
b0xxxxxxxxxxxxxxxx l"
b0xxxxxxxxxxxxxxxx k"
bx j"
bx i"
bx h"
bx g"
b10 f"
b10 e"
b10 d"
bx c"
bx b"
bx a"
bx `"
bx _"
bx ^"
b10 ]"
b10 \"
b10 ["
bx Z"
bx Y"
bx X"
bx W"
bx V"
bx U"
bx T"
bz S"
b0 R"
b0 Q"
0P"
bz O"
b0 N"
bz M"
bz L"
bz K"
bz J"
bx I"
bx H"
bx G"
bx F"
bx E"
bx D"
b0 C"
1B"
b0 A"
b0 @"
b1000 ?"
1>"
b0 ="
0<"
bx ;"
bx :"
bx 9"
bx 8"
bx 7"
bx 6"
bx 5"
bx 4"
13"
12"
01"
00"
bx /"
bx ."
0-"
0,"
bx +"
bx *"
1)"
0("
bx '"
bx &"
1%"
bx $"
0#"
b0 ""
bx !"
bx ~
0}
b0 |
bx {
bz z
bz y
0x
bx w
bx v
bx u
bx t
bx s
bx r
bx q
bx p
bx o
bx n
bx m
bz l
bz k
b0 j
bx i
bx h
bx g
bx f
1e
b10 d
b0 c
bx b
bx a
bx `
bx _
bz ^
bx ]
bx \
1[
1Z
0Y
0X
bx W
bx V
0U
0T
bx S
bx R
bx Q
bx P
1O
0N
0M
b10 L
bx K
bx J
b10 I
b10 H
bz G
bz F
bz E
b101 D
b0 C
bz B
b101 A
bx @
bz ?
x>
bz =
1<
z;
z:
bz 9
z8
z7
bx 6
bz 5
z4
bx 3
bx 2
bx 1
bx 0
1/
bz .
z-
bz ,
b101 +
b0 *
1)
1(
bz '
z&
z%
bx $
bx #
bx "
b0 !
$end
#5
0(
0/
#7
0)
0<
#10
b10000 ?"
b1000 C"
b1000 !
b1000 *
b1000 C
b1000 Q"
b1000 ,#
b1000 j
b1000 ="
b1000 N"
b1000 R"
b10 @
b1000000100000000000001010000010 2#
b1000000100000000000001010000010 1
b1000000100000000000001010000010 ]
b1000000100000000000001010000010 $"
b1000000100000000000001010000010 '"
b1000000100000000000001010000010 #
b1000000100000000000001010000010 3
b1000000100000000000001010000010 b
b1000000100000000000001010000010 !"
b1000000100000000000001010000010 1#
b1000000100000000000001010000010 0
b1000000100000000000001010000010 \
b1000000100000000000001010000010 ~
b1000000100000000000001010000010 &"
b1000000100000000000001010000010 "
b1000000100000000000001010000010 2
b1000000100000000000001010000010 a
b1000000100000000000001010000010 {
b1000 @"
b1000 c
b1000 A"
bx 5"
bx 4"
13"
1[
1(
1/
#15
0(
0/
#20
b11000 ?"
b10000 C"
b10000 !
b10000 *
b10000 C
b10000 Q"
b10000 ,#
b10000 j
b10000 ="
b10000 N"
b10000 R"
b11 @
11"
1Y
b101 /"
b101 l"
b101 W
b101 j"
b10 ;"
b10 v
b10 v"
10"
1X
b101 ."
b101 k"
b101 V
b101 i"
b10 :"
b10 u
b10 u"
b1000000100 5"
13"
1[
b10000 @"
b10000 c
b10000 A"
b1000000100000000000010100000011 2#
b1000000100000000000010100000011 1
b1000000100000000000010100000011 ]
b1000000100000000000010100000011 $"
b1000000100000000000010100000011 '"
b1000000100000000000010100000011 #
b1000000100000000000010100000011 3
b1000000100000000000010100000011 b
b1000000100000000000010100000011 !"
b1000000100000000000010100000011 1#
b1000000100000000000010100000011 0
b1000000100000000000010100000011 \
b1000000100000000000010100000011 ~
b1000000100000000000010100000011 &"
b1000000100000000000010100000011 "
b1000000100000000000010100000011 2
b1000000100000000000010100000011 a
b1000000100000000000010100000011 {
b1000000100 4"
1)"
1("
1N
1(
1/
#25
0(
0/
#30
b100000 ?"
b11000 C"
b11000 !
b11000 *
b11000 C
b11000 Q"
b11000 ,#
b11000 j
b11000 ="
b11000 N"
b11000 R"
b1010 @
b1000000100000000000010100000100 2#
b1000000100000000000010100000100 1
b1000000100000000000010100000100 ]
b1000000100000000000010100000100 $"
b1000000100000000000010100000100 '"
b1000000100000000000010100000100 #
b1000000100000000000010100000100 3
b1000000100000000000010100000100 b
b1000000100000000000010100000100 !"
b11000000000001000000110001010 1#
b11000000000001000000110001010 0
b11000000000001000000110001010 \
b11000000000001000000110001010 ~
b11000000000001000000110001010 &"
b11000000000001000000110001010 "
b11000000000001000000110001010 2
b11000000000001000000110001010 a
b11000000000001000000110001010 {
b11000 @"
b11000 c
b11000 A"
b1010 /"
b1010 l"
b1010 W
b1010 j"
b11 ;"
b11 v
b11 v"
b1010 ."
b1010 k"
b1010 V
b1010 i"
b11 :"
b11 u
b11 u"
b1000000100 5"
13"
1[
11"
1Y
10"
1X
b10 }"
b10 |"
b1000000100 4"
1)"
1("
1(
1/
#35
0(
0/
#40
b101000 ?"
b1111 &#
b1111 K
b1111 F"
b100000 C"
b100000 !
b100000 *
b100000 C
b100000 Q"
b100000 ,#
b100000 j
b100000 ="
b100000 N"
b100000 R"
b0 $#
b1111 %#
b1010 ##
b1010 Q
b1010 Z"
b1010 "#
b1010 r
b1010 X"
b1010 a"
b1010 r"
b101 P
b101 W"
b101 ~"
b101 q
b101 U"
b101 ^"
b101 q"
b1010 :"
b1010 u
b1010 u"
b11 8"
b11 o
b11 o"
b10 6"
b10 m
b10 m"
b100 ;"
b100 v
b100 v"
b1000000100 5"
13"
1[
11"
1Y
00"
0X
b100000 @"
b100000 c
b100000 A"
b1000000100000000000000100000101 2#
b1000000100000000000000100000101 1
b1000000100000000000000100000101 ]
b1000000100000000000000100000101 $"
b1000000100000000000000100000101 '"
b1000000100000000000000100000101 #
b1000000100000000000000100000101 3
b1000000100000000000000100000101 b
b1000000100000000000000100000101 !"
b1000000100 4"
1)"
0("
0N
b11 }"
b11 |"
1(
1/
#45
0(
0/
#50
b110000 ?"
b101000 C"
b101000 !
b101000 *
b101000 C
b101000 Q"
b101000 ,#
b101000 j
b101000 ="
b101000 N"
b101000 R"
bx 2#
bx 1
bx ]
bx $"
bx '"
bx #
bx 3
bx b
bx !"
b11000000000010000010100001010 1#
b11000000000010000010100001010 0
b11000000000010000010100001010 \
b11000000000010000010100001010 ~
b11000000000010000010100001010 &"
b11000000000010000010100001010 "
b11000000000010000010100001010 2
b11000000000010000010100001010 a
b11000000000010000010100001010 {
b1111 G"
b1111 J
b1111 x"
b101000 @"
b101000 c
b101000 A"
b10 /"
b10 l"
b10 W
b10 j"
b101 ;"
b101 v
b101 v"
b1000000100 5"
13"
1[
11"
1Y
b100 }"
b1010 |"
b1000000100 4"
1)"
0("
1(
1/
#55
0(
0/
#60
b111000 ?"
b11001 &#
b11001 K
b11001 F"
b110000 C"
b110000 !
b110000 *
b110000 C
b110000 Q"
b110000 ,#
b110000 j
b110000 ="
b110000 N"
b110000 R"
b1111 ##
b1111 Q
b1111 Z"
b1111 "#
b1111 r
b1111 X"
b1111 a"
b1111 r"
b11001 %#
b1010 P
b1010 W"
b1010 ~"
b1010 q
b1010 U"
b1010 ^"
b1010 q"
bx @
b1010 8"
b1010 o
b1010 o"
b100 6"
b100 m
b100 m"
bx 5"
13"
1[
01"
0Y
b110000 @"
b110000 c
b110000 A"
bx 1#
bx 0
bx \
bx ~
bx &"
bx "
bx 2
bx a
bx {
0("
b101 }"
1(
1/
#65
0(
0/
#70
b1000000 ?"
b111000 C"
b111000 !
b111000 *
b111000 C
b111000 Q"
b111000 ,#
b111000 j
b111000 ="
b111000 N"
b111000 R"
b11001 G"
b11001 J
b11001 x"
b111000 @"
b111000 c
b111000 A"
bx 5"
13"
1[
1(
1/
#75
0(
0/
#80
b1001000 ?"
b1000000 C"
b1000000 !
b1000000 *
b1000000 C
b1000000 Q"
b1000000 ,#
b1000000 j
b1000000 ="
b1000000 N"
b1000000 R"
b100011 &#
b100011 K
b100011 F"
bx 5"
13"
1[
b1000000 @"
b1000000 c
b1000000 A"
b100011 %#
b11001 ##
b11001 Q
b11001 Z"
b11001 "#
b11001 r
b11001 X"
b11001 a"
b11001 r"
1(
1/
#85
0(
0/
#90
b1010000 ?"
b1001000 C"
b1001000 !
b1001000 *
b1001000 C
b1001000 Q"
b1001000 ,#
b1001000 j
b1001000 ="
b1001000 N"
b1001000 R"
b100011 G"
b100011 J
b100011 x"
b1001000 @"
b1001000 c
b1001000 A"
bx 5"
13"
1[
1(
1/
#95
0(
0/
#100
b1011000 ?"
b1010000 C"
b1010000 !
b1010000 *
b1010000 C
b1010000 Q"
b1010000 ,#
b1010000 j
b1010000 ="
b1010000 N"
b1010000 R"
b101101 &#
b101101 K
b101101 F"
bx 5"
13"
1[
b1010000 @"
b1010000 c
b1010000 A"
b101101 %#
b100011 ##
b100011 Q
b100011 Z"
b100011 "#
b100011 r
b100011 X"
b100011 a"
b100011 r"
1(
1/
#105
0(
0/
#110
b1100000 ?"
b1011000 C"
b1011000 !
b1011000 *
b1011000 C
b1011000 Q"
b1011000 ,#
b1011000 j
b1011000 ="
b1011000 N"
b1011000 R"
b101101 G"
b101101 J
b101101 x"
b1011000 @"
b1011000 c
b1011000 A"
bx 5"
13"
1[
1(
1/
#115
0(
0/
#120
b1101000 ?"
b1100000 C"
b1100000 !
b1100000 *
b1100000 C
b1100000 Q"
b1100000 ,#
b1100000 j
b1100000 ="
b1100000 N"
b1100000 R"
b110111 &#
b110111 K
b110111 F"
bx 5"
13"
1[
b1100000 @"
b1100000 c
b1100000 A"
b110111 %#
b101101 ##
b101101 Q
b101101 Z"
b101101 "#
b101101 r
b101101 X"
b101101 a"
b101101 r"
1(
1/
#125
0(
0/
#130
b1110000 ?"
b1101000 C"
b1101000 !
b1101000 *
b1101000 C
b1101000 Q"
b1101000 ,#
b1101000 j
b1101000 ="
b1101000 N"
b1101000 R"
b110111 G"
b110111 J
b110111 x"
b1101000 @"
b1101000 c
b1101000 A"
bx 5"
13"
1[
1(
1/
#135
0(
0/
#140
b1111000 ?"
b1110000 C"
b1110000 !
b1110000 *
b1110000 C
b1110000 Q"
b1110000 ,#
b1110000 j
b1110000 ="
b1110000 N"
b1110000 R"
b1000001 &#
b1000001 K
b1000001 F"
bx 5"
13"
1[
b1110000 @"
b1110000 c
b1110000 A"
b1000001 %#
b110111 ##
b110111 Q
b110111 Z"
b110111 "#
b110111 r
b110111 X"
b110111 a"
b110111 r"
1(
1/
#145
0(
0/
#150
b10000000 ?"
b1111000 C"
b1111000 !
b1111000 *
b1111000 C
b1111000 Q"
b1111000 ,#
b1111000 j
b1111000 ="
b1111000 N"
b1111000 R"
b1000001 G"
b1000001 J
b1000001 x"
b1111000 @"
b1111000 c
b1111000 A"
bx 5"
13"
1[
1(
1/
#155
0(
0/
#160
b10001000 ?"
b10000000 C"
b10000000 !
b10000000 *
b10000000 C
b10000000 Q"
b10000000 ,#
b10000000 j
b10000000 ="
b10000000 N"
b10000000 R"
b1001011 &#
b1001011 K
b1001011 F"
bx 5"
13"
1[
b10000000 @"
b10000000 c
b10000000 A"
b1001011 %#
b1000001 ##
b1000001 Q
b1000001 Z"
b1000001 "#
b1000001 r
b1000001 X"
b1000001 a"
b1000001 r"
1(
1/
#165
0(
0/
#170
b10010000 ?"
b10001000 C"
b10001000 !
b10001000 *
b10001000 C
b10001000 Q"
b10001000 ,#
b10001000 j
b10001000 ="
b10001000 N"
b10001000 R"
b1001011 G"
b1001011 J
b1001011 x"
b10001000 @"
b10001000 c
b10001000 A"
bx 5"
13"
1[
1(
1/
#175
0(
0/
#180
b10011000 ?"
b10010000 C"
b10010000 !
b10010000 *
b10010000 C
b10010000 Q"
b10010000 ,#
b10010000 j
b10010000 ="
b10010000 N"
b10010000 R"
b1010101 &#
b1010101 K
b1010101 F"
bx 5"
13"
1[
b10010000 @"
b10010000 c
b10010000 A"
b1010101 %#
b1001011 ##
b1001011 Q
b1001011 Z"
b1001011 "#
b1001011 r
b1001011 X"
b1001011 a"
b1001011 r"
1(
1/
#185
0(
0/
#190
b10100000 ?"
b10011000 C"
b10011000 !
b10011000 *
b10011000 C
b10011000 Q"
b10011000 ,#
b10011000 j
b10011000 ="
b10011000 N"
b10011000 R"
b1010101 G"
b1010101 J
b1010101 x"
b10011000 @"
b10011000 c
b10011000 A"
bx 5"
13"
1[
1(
1/
#195
0(
0/
#200
b10101000 ?"
b10100000 C"
b10100000 !
b10100000 *
b10100000 C
b10100000 Q"
b10100000 ,#
b10100000 j
b10100000 ="
b10100000 N"
b10100000 R"
b1011111 &#
b1011111 K
b1011111 F"
bx 5"
13"
1[
b10100000 @"
b10100000 c
b10100000 A"
b1011111 %#
b1010101 ##
b1010101 Q
b1010101 Z"
b1010101 "#
b1010101 r
b1010101 X"
b1010101 a"
b1010101 r"
1(
1/
#205
0(
0/
#210
b10110000 ?"
b10101000 C"
b10101000 !
b10101000 *
b10101000 C
b10101000 Q"
b10101000 ,#
b10101000 j
b10101000 ="
b10101000 N"
b10101000 R"
b1011111 G"
b1011111 J
b1011111 x"
b10101000 @"
b10101000 c
b10101000 A"
bx 5"
13"
1[
1(
1/
#215
0(
0/
#220
b10111000 ?"
b10110000 C"
b10110000 !
b10110000 *
b10110000 C
b10110000 Q"
b10110000 ,#
b10110000 j
b10110000 ="
b10110000 N"
b10110000 R"
b1101001 &#
b1101001 K
b1101001 F"
bx 5"
13"
1[
b10110000 @"
b10110000 c
b10110000 A"
b1101001 %#
b1011111 ##
b1011111 Q
b1011111 Z"
b1011111 "#
b1011111 r
b1011111 X"
b1011111 a"
b1011111 r"
1(
1/
#225
0(
0/
#230
b11000000 ?"
b10111000 C"
b10111000 !
b10111000 *
b10111000 C
b10111000 Q"
b10111000 ,#
b10111000 j
b10111000 ="
b10111000 N"
b10111000 R"
b1101001 G"
b1101001 J
b1101001 x"
b10111000 @"
b10111000 c
b10111000 A"
bx 5"
13"
1[
1(
1/
#235
0(
0/
#240
b11001000 ?"
b11000000 C"
b11000000 !
b11000000 *
b11000000 C
b11000000 Q"
b11000000 ,#
b11000000 j
b11000000 ="
b11000000 N"
b11000000 R"
b1110011 &#
b1110011 K
b1110011 F"
bx 5"
13"
1[
b11000000 @"
b11000000 c
b11000000 A"
b1110011 %#
b1101001 ##
b1101001 Q
b1101001 Z"
b1101001 "#
b1101001 r
b1101001 X"
b1101001 a"
b1101001 r"
1(
1/
#245
0(
0/
#250
b11010000 ?"
b11001000 C"
b11001000 !
b11001000 *
b11001000 C
b11001000 Q"
b11001000 ,#
b11001000 j
b11001000 ="
b11001000 N"
b11001000 R"
b1110011 G"
b1110011 J
b1110011 x"
b11001000 @"
b11001000 c
b11001000 A"
bx 5"
13"
1[
1(
1/
#255
0(
0/
#260
b11011000 ?"
b11010000 C"
b11010000 !
b11010000 *
b11010000 C
b11010000 Q"
b11010000 ,#
b11010000 j
b11010000 ="
b11010000 N"
b11010000 R"
b1111101 &#
b1111101 K
b1111101 F"
bx 5"
13"
1[
b11010000 @"
b11010000 c
b11010000 A"
b1111101 %#
b1110011 ##
b1110011 Q
b1110011 Z"
b1110011 "#
b1110011 r
b1110011 X"
b1110011 a"
b1110011 r"
1(
1/
#265
0(
0/
#270
b11100000 ?"
b11011000 C"
b11011000 !
b11011000 *
b11011000 C
b11011000 Q"
b11011000 ,#
b11011000 j
b11011000 ="
b11011000 N"
b11011000 R"
b1111101 G"
b1111101 J
b1111101 x"
b11011000 @"
b11011000 c
b11011000 A"
bx 5"
13"
1[
1(
1/
#275
0(
0/
#280
b11101000 ?"
b11100000 C"
b11100000 !
b11100000 *
b11100000 C
b11100000 Q"
b11100000 ,#
b11100000 j
b11100000 ="
b11100000 N"
b11100000 R"
b10000111 &#
b10000111 K
b10000111 F"
bx 5"
13"
1[
b11100000 @"
b11100000 c
b11100000 A"
b10000111 %#
b1111101 ##
b1111101 Q
b1111101 Z"
b1111101 "#
b1111101 r
b1111101 X"
b1111101 a"
b1111101 r"
1(
1/
#285
0(
0/
#290
b11110000 ?"
b11101000 C"
b11101000 !
b11101000 *
b11101000 C
b11101000 Q"
b11101000 ,#
b11101000 j
b11101000 ="
b11101000 N"
b11101000 R"
b10000111 G"
b10000111 J
b10000111 x"
b11101000 @"
b11101000 c
b11101000 A"
bx 5"
13"
1[
1(
1/
#295
0(
0/
#300
b11111000 ?"
b11110000 C"
b11110000 !
b11110000 *
b11110000 C
b11110000 Q"
b11110000 ,#
b11110000 j
b11110000 ="
b11110000 N"
b11110000 R"
b10010001 &#
b10010001 K
b10010001 F"
bx 5"
13"
1[
b11110000 @"
b11110000 c
b11110000 A"
b10010001 %#
b10000111 ##
b10000111 Q
b10000111 Z"
b10000111 "#
b10000111 r
b10000111 X"
b10000111 a"
b10000111 r"
1(
1/
#305
0(
0/
#310
b100000000 ?"
b11111000 C"
b11111000 !
b11111000 *
b11111000 C
b11111000 Q"
b11111000 ,#
b11111000 j
b11111000 ="
b11111000 N"
b11111000 R"
b10010001 G"
b10010001 J
b10010001 x"
b11111000 @"
b11111000 c
b11111000 A"
bx 5"
13"
1[
1(
1/
#315
0(
0/
#320
b100001000 ?"
b100000000 C"
b100000000 !
b100000000 *
b100000000 C
b100000000 Q"
b100000000 ,#
b100000000 j
b100000000 ="
b100000000 N"
b100000000 R"
b10011011 &#
b10011011 K
b10011011 F"
bx 5"
13"
1[
b100000000 @"
b100000000 c
b100000000 A"
b10011011 %#
b10010001 ##
b10010001 Q
b10010001 Z"
b10010001 "#
b10010001 r
b10010001 X"
b10010001 a"
b10010001 r"
1(
1/
#325
0(
0/
#330
b100010000 ?"
b100001000 C"
b100001000 !
b100001000 *
b100001000 C
b100001000 Q"
b100001000 ,#
b100001000 j
b100001000 ="
b100001000 N"
b100001000 R"
b10011011 G"
b10011011 J
b10011011 x"
b100001000 @"
b100001000 c
b100001000 A"
bx 5"
13"
1[
1(
1/
#335
0(
0/
#340
b100011000 ?"
b100010000 C"
b100010000 !
b100010000 *
b100010000 C
b100010000 Q"
b100010000 ,#
b100010000 j
b100010000 ="
b100010000 N"
b100010000 R"
b10100101 &#
b10100101 K
b10100101 F"
bx 5"
13"
1[
b100010000 @"
b100010000 c
b100010000 A"
b10100101 %#
b10011011 ##
b10011011 Q
b10011011 Z"
b10011011 "#
b10011011 r
b10011011 X"
b10011011 a"
b10011011 r"
1(
1/
#345
0(
0/
#350
b100100000 ?"
b100011000 C"
b100011000 !
b100011000 *
b100011000 C
b100011000 Q"
b100011000 ,#
b100011000 j
b100011000 ="
b100011000 N"
b100011000 R"
b10100101 G"
b10100101 J
b10100101 x"
b100011000 @"
b100011000 c
b100011000 A"
bx 5"
13"
1[
1(
1/
#355
0(
0/
#360
b100101000 ?"
b100100000 C"
b100100000 !
b100100000 *
b100100000 C
b100100000 Q"
b100100000 ,#
b100100000 j
b100100000 ="
b100100000 N"
b100100000 R"
b10101111 &#
b10101111 K
b10101111 F"
bx 5"
13"
1[
b100100000 @"
b100100000 c
b100100000 A"
b10101111 %#
b10100101 ##
b10100101 Q
b10100101 Z"
b10100101 "#
b10100101 r
b10100101 X"
b10100101 a"
b10100101 r"
1(
1/
#365
0(
0/
